Time-specific temperature exposures for DHS survey respondents – IPUMS DHS Spatial Analysis and Health Research Hub
…
KIDDOBCMC: Child’s date of birth (CMC)

BIRTHWT: Birth weight in kilos

BIRTHWTREF: Source of weight at birth (health card or recall)

Check out our walkthrough for downloading IPUMS DHS data if you need help producing a similar extract.

We’ll load our data using {ipumsr}:

ml_dhs <- read_ipums_micro("data/idhs_00021.xml")
#> Use of data from IPUMS DHS is subject to conditions including that users should cite the data appropriately. Use command `ipums_conditions()` for more details.

ml_dhs
#> # A tibble: 10,326 × 48
#>    SAMPLE            SAMPLESTR     COUNTRY    YEAR IDHSPID IDHSHID DHSID IDHSPSU
#>    <int+lbl>         <chr+lbl>     <int+lbl> <int> <chr>   <chr>   <chr>   <dbl>
#>  1 46605 [Mali 2012] 46605 [Mali … 466 [Mal…  2012 46605 … 46605 … ML20… 4.66e10
#>  2 46605 [Mali 2012] 46605 [Mali … 466 [Mal…  2012 46605 … 46605 … ML20… 4.66e10
#>  3 46605 [Mali 2012] 46605 [Mali … 466 [Mal…  2012 46605 … 46605 … ML20… 4.66e10
#>  4 46605 [Mali 2012] 46605 [Mali … 466 [Mal…  2012 46605 … 46605 … ML20… 4.66e10
#>  5 46605 [Mali 2012] 46605 [Mali … 466 [Mal…  2012 46605 … 46605 … ML20… 4.66e10
#>  6 46605 [Mali 2012] 46605 [Mali … 466 [Mal…  2012 46605 … 46605 … ML20… 4.66e10
#>  7 46605 [Mali 2012] 46605 [Mali … 466 [Mal…  2012 46605 … 46605 … ML20… 4.66e10
#>  8 46605 [Mali 2012] 46605 [Mali … 466 [Mal…  2012 46605 … 46605 … ML20… 4.66e10
#>  9 46605 [Mali 2012] 46605 [Mali … 466 [Mal…  2012 46605 … 46605 … ML20… 4.66e10
#> 10 46605 [Mali 2012] 46605 [Mali … 466 [Mal…  2012 46605 … 46605 … ML20… 4.66e10
#> # ℹ 10,316 more rows
#> # ℹ 40 more variables: IDHSSTRATA <dbl>, CASEID <chr>, HHID <chr>, PSU <dbl>,
#> #   STRATA <dbl>, DOMAIN <dbl>, HHNUM <dbl>, CLUSTERNO <dbl>, LINENO <int>,
#> #   BIDX <int>, PERWEIGHT <dbl>, KIDWT <dbl>, AWFACTT <dbl>, AWFACTU <dbl>,
#> #   AWFACTR <dbl>, AWFACTE <dbl>, AWFACTW <dbl>, DVWEIGHT <dbl>,
#> #   URBAN <int+lbl>, GEO_ML1987_2018 <int+lbl>, GEO_ML1995_2018 <int+lbl>,
#> #   GEO_ML2012 <int+lbl>, AGE <int>, AGE5YEAR <int+lbl>, RESIDENT <int+lbl>, …
…
Attaching heatwaves to DHS clusters

To extract the average heatwave proportions for each DHS enumeration cluster, we’ll use terra’s extract(), which we’ve introduced previously.

# Extract mean heatwave proportions for each DHS cluster region
chirts_clust <- extract(
  ml_chirts_heatwave, 
  ml_clust_buffer, 
  fun = mean,
  weights = TRUE
) |> 
  as_tibble()

chirts_clust
#> # A tibble: 413 × 73
#>       ID ml_chirts_heatwave_1 ml_chirts_heatwave_2 ml_chirts_heatwave_3
#>    <int>                <dbl>                <dbl>                <dbl>
#>  1     1                0.210                0.498                0.806
#>  2     2                0.226                0.714                0.903
#>  3     3                0.270                0.910                1    
#>  4     4                0.226                0.857                0.968
#>  5     5                0.258                0.898                0.996
#>  6     6                0.226                0.841                0.935
#>  7     7                0.169                0.679                0.903
#>  8     8                0.161                0.5                  0.892
#>  9     9                0.226                0.858                0.973
#> 10    10                0.194                0.627                0.924
#> # ℹ 403 more rows
#> # ℹ 69 more variables: ml_chirts_heatwave_4 <dbl>, ml_chirts_heatwave_5 <dbl>,
#> #   ml_chirts_heatwave_6 <dbl>, ml_chirts_heatwave_7 <dbl>,
#> #   ml_chirts_heatwave_8 <dbl>, ml_chirts_heatwave_9 <dbl>,
#> #   ml_chirts_heatwave_10 <dbl>, ml_chirts_heatwave_11 <dbl>,
#> #   ml_chirts_heatwave_12 <dbl>, ml_chirts_heatwave_13 <dbl>,
#> #   ml_chirts_heatwave_14 <dbl>, ml_chirts_heatwave_15 <dbl>, …
…
# Change layer names
names(chirts_clust) <- c("DHSID", ym_to_cmc(year_months))

Next, we need to convert the incremental ID numbers for each cluster to their corresponding DHSID code. The ID values in chirts_clust represent the clusters extracted from ml_clust in index order. Thus, we simply need to reassign the incremental ID codes in chirts_clust with the IDs in ml_clust.

# Convert index numbers to corresponding DHSID codes
chirts_clust$DHSID <- ml_clust$DHSID

chirts_clust
#> # A tibble: 413 × 73
#>    DHSID  `1285` `1286` `1287` `1288` `1289` `1290`  `1291` `1292` `1293` `1294`
#>    <chr>   <dbl>  <dbl>  <dbl>  <dbl>  <dbl>  <dbl>   <dbl>  <dbl>  <dbl>  <dbl>
#>  1 ML201…  0.210  0.498  0.806  1      1      0.935 0.358        0 0.318   1    
#>  2 ML201…  0.226  0.714  0.903  1      0.999  0.825 0.346        0 0.0355  0.857
#>  3 ML201…  0.270  0.910  1      0.999  1      0.604 0            0 0       0.150
#>  4 ML201…  0.226  0.857  0.968  1      1      0.718 0.186        0 0       0.159
#>  5 ML201…  0.258  0.898  0.996  0.988  1      0.599 0            0 0       0.141
#>  6 ML201…  0.226  0.841  0.935  1      1      0.572 0            0 0       0.373
#>  7 ML201…  0.169  0.679  0.903  1      1      0.933 0.305        0 0.427   0.778
#>  8 ML201…  0.161  0.5    0.892  1      1      0.967 0.581        0 0.5     0.901
#>  9 ML201…  0.226  0.858  0.973  0.991  1      0.569 0.00296      0 0       0.144
#> 10 ML201…  0.194  0.627  0.924  1      1      1.00  0.572        0 0.385   0.957
#> # ℹ 403 more rows
#> # ℹ 62 more variables: `1295` <dbl>, `1296` <dbl>, `1297` <dbl>, `1298` <dbl>,
#> #   `1299` <dbl>, `1300` <dbl>, `1301` <dbl>, `1302` <dbl>, `1303` <dbl>,
#> #   `1304` <dbl>, `1305` <dbl>, `1306` <dbl>, `1307` <dbl>, `1308` <dbl>,
#> #   `1309` <dbl>, `1310` <dbl>, `1311` <dbl>, `1312` <dbl>, `1313` <dbl>,
#> #   `1314` <dbl>, `1315` <dbl>, `1316` <dbl>, `1317` <dbl>, `1318` <dbl>,
#> #   `1319` <dbl>, `1320` <dbl>, `1321` <dbl>, `1322` <dbl>, `1323` <dbl>, …
Now we’re ready to convert to long format data. pivot_longer() will convert a set of columns in our wide data to two columns in our long data. The names of these columns will be stored in one of the output columns, and their associated values will be stored in the other.

Below, we indicate that we want to pivot all columns except the DHSID column (the data are already long on DHSID). We also indicate that we want the new column of names to be called "CHIRTSCMC" and the new column of values to be called "PROPHEATWAVE". Finally, we use the names_transform argument to convert all the names to numeric format, so they will be interpretable as CMCs.

# Convert to long format for each cluster/month combination
chirts_clust <- pivot_longer(
  chirts_clust,
  cols = -DHSID,
  names_to = "CHIRTSCMC",
  values_to = "PROPHEATWAVE",
  names_transform = as.numeric
)

chirts_clust
#> # A tibble: 29,736 × 3
#>    DHSID          CHIRTSCMC PROPHEATWAVE
#>    <chr>              <dbl>        <dbl>
#>  1 ML201200000001      1285        0.210
#>  2 ML201200000001      1286        0.498
#>  3 ML201200000001      1287        0.806
#>  4 ML201200000001      1288        1    
#>  5 ML201200000001      1289        1    
#>  6 ML201200000001      1290        0.935
#>  7 ML201200000001      1291        0.358
#>  8 ML201200000001      1292        0    
#>  9 ML201200000001      1293        0.318
#> 10 ML201200000001      1294        1    
#> # ℹ 29,726 more rows
…
We should end up with a dataset that contains 9 records for each child: one for each month between their conception and birth. We can confirm by counting the records for each KIDID:

# Each kid should have 9 rows now
ml_dhs_chirts |> 
  count(KIDID)
#> # A tibble: 10,300 × 2
#>    KIDID               n
#>    <chr>           <int>
#>  1 46605 1 14 2 1      9
#>  2 46605 1 16 2 1      9
#>  3 46605 1 16 5 1      9
#>  4 46605 1 16 5 2      9
#>  5 46605 1 4 2 1       9
#>  6 46605 1 42 2 1      9
#>  7 46605 1 42 2 2      9
#>  8 46605 1 50 2 1      9
#>  9 46605 1 75 12 1     9
#> 10 46605 1 75 12 2     9
#> # ℹ 10,290 more rows
…
ml_dhs_chirts <- ml_dhs_chirts |> 
  arrange(DHSID, KIDID, CHIRTSCMC) |> # order by CMC to ensure trimesters are in correct order
  mutate(TRIMESTER = as_factor(rep(c(1, 2, 3), each = 3)), .by = KIDID)

Then, we’ll average the heatwave proportions across trimesters for each child:

# Average proportion of heatwave days within each child and trimester
ml_dhs_tri <- ml_dhs_chirts |> 
  summarize(
    MEANPROPHEATWAVE = mean(PROPHEATWAVE), 
    .by = c(KIDID, TRIMESTER)
  )

ml_dhs_tri
#> # A tibble: 30,900 × 3
#>    KIDID          TRIMESTER MEANPROPHEATWAVE
#>    <chr>          <fct>                <dbl>
#>  1 46605 1 14 2 1 1                    0.439
#>  2 46605 1 14 2 1 2                    0.218
#>  3 46605 1 14 2 1 3                    0.781
#>  4 46605 1 16 2 1 1                    0.240
#>  5 46605 1 16 2 1 2                    0.903
#>  6 46605 1 16 2 1 3                    0.731
#>  7 46605 1 16 5 1 1                    0.944
#>  8 46605 1 16 5 1 2                    0.322
#>  9 46605 1 16 5 1 3                    0.578
#> 10 46605 1 16 5 2 1                    0.115
#> # ℹ 30,890 more rows
…
