Attaching CHIRPS Precipitation Data to DHS Surveys – IPUMS DHS Spatial Analysis and Health Research Hub
…
# Load IPUMS DHS extract
dhs <- read_ipums_micro(
  ddi = "data/dhs/idhs_00018.xml",
  data_file = "data/dhs/idhs_00018.dat.gz",
  verbose = FALSE
)

# Select a subset of variables
dhs <- dhs |> 
  select(SAMPLE, YEAR, IDHSPID, IDHSHID, DHSID, URBAN, HWHAZWHO)

dhs
#> # A tibble: 15,044 × 7
#>    SAMPLE                     YEAR IDHSPID      IDHSHID DHSID URBAN   HWHAZWHO  
#>    <int+lbl>                 <int> <chr>        <chr>   <chr> <int+l> <int+lbl> 
#>  1 85404 [Burkina Faso 2010]  2010 85404      … 85404 … BF20… 2 [Rur… -264      
#>  2 85404 [Burkina Faso 2010]  2010 85404      … 85404 … BF20… 2 [Rur… -113      
#>  3 85404 [Burkina Faso 2010]  2010 85404      … 85404 … BF20… 2 [Rur…  -13      
#>  4 85404 [Burkina Faso 2010]  2010 85404      … 85404 … BF20… 2 [Rur… -291      
#>  5 85404 [Burkina Faso 2010]  2010 85404      … 85404 … BF20… 2 [Rur… -211      
#>  6 85404 [Burkina Faso 2010]  2010 85404      … 85404 … BF20… 2 [Rur… 9999 [NIU…
#>  7 85404 [Burkina Faso 2010]  2010 85404      … 85404 … BF20… 2 [Rur… 9999 [NIU…
#>  8 85404 [Burkina Faso 2010]  2010 85404      … 85404 … BF20… 2 [Rur… -185      
#>  9 85404 [Burkina Faso 2010]  2010 85404      … 85404 … BF20… 2 [Rur… 9999 [NIU…
#> 10 85404 [Burkina Faso 2010]  2010 85404      … 85404 … BF20… 2 [Rur…  -88      
#> # ℹ 15,034 more rows
…
