Obtaining Data from IPUMS DHS – IPUMS DHS Spatial Analysis and Health Research Hub
…
Note that you’ll need to adjust the file paths to reflect the location of the files on your local system.

library(ipumsr)

dhs <- read_ipums_micro(
  ddi = "data/dhs/idhs_00015.xml",
  data_file = "data/dhs/idhs_00015.dat.gz",
)
#> Use of data from IPUMS DHS is subject to conditions including that users should cite the data appropriately. Use command `ipums_conditions()` for more details.

You should now have a tabular data source loaded into R:

dhs
#> # A tibble: 25,689 × 59
#>    SAMPLE        SAMPLESTR  COUNTRY    YEAR IDHSPID IDHSHID DHSID IDHSPSU CASEID
#>    <int+lbl>     <chr+lbl>  <int+lbl> <int> <chr>   <chr>   <chr>   <dbl> <chr> 
#>  1 85403 [Burki… 854… [Bur… 854 [Bur…  2003 85403 … 85403 … BF20… 8.54e10 1 76 …
#>  2 85403 [Burki… 854… [Bur… 854 [Bur…  2003 85403 … 85403 … BF20… 8.54e10 1 76 …
#>  3 85403 [Burki… 854… [Bur… 854 [Bur…  2003 85403 … 85403 … BF20… 8.54e10 1 76 …
#>  4 85403 [Burki… 854… [Bur… 854 [Bur…  2003 85403 … 85403 … BF20… 8.54e10 1 98 …
#>  5 85403 [Burki… 854… [Bur… 854 [Bur…  2003 85403 … 85403 … BF20… 8.54e10 1 98 …
#>  6 85403 [Burki… 854… [Bur… 854 [Bur…  2003 85403 … 85403 … BF20… 8.54e10 1113 …
#>  7 85403 [Burki… 854… [Bur… 854 [Bur…  2003 85403 … 85403 … BF20… 8.54e10 1207 …
#>  8 85403 [Burki… 854… [Bur… 854 [Bur…  2003 85403 … 85403 … BF20… 8.54e10 1207 …
#>  9 85403 [Burki… 854… [Bur… 854 [Bur…  2003 85403 … 85403 … BF20… 8.54e10 1232 …
#> 10 85403 [Burki… 854… [Bur… 854 [Bur…  2003 85403 … 85403 … BF20… 8.54e10 1232 …
#> # ℹ 25,679 more rows
#> # ℹ 50 more variables: HHID <chr>, PSU <dbl>, DOMAIN <dbl>, HHNUM <dbl>,
#> #   CLUSTERNO <dbl>, LINENO <int>, BIDX <int>, PERWEIGHT <dbl>, KIDWT <dbl>,
#> #   AWFACTT <dbl>, AWFACTU <dbl>, AWFACTR <dbl>, AWFACTE <dbl>, AWFACTW <dbl>,
#> #   DVWEIGHT <dbl>, INTYEAR <int>, MONTHINT <int+lbl>, INTDAY <int>,
#> #   INTDATECMC <dbl>, URBAN <int+lbl>, RESIDEINTYR <int+lbl>,
#> #   GEO_BF2003_2010 <int+lbl>, GEO_BF2003 <int+lbl>, GEO_BF2010 <int+lbl>, …
…
